{
   "source": {
     "include": ["src/api/akomando.js"],
     "includePattern": ".+\\.js(doc|x)?$",
     "excludePattern": "(^|\\/|\\\\)_"
   },
   "sourceType": "module",
   "tags": {
     "allowUnknownTags": true,
     "dictionaries": ["jsdoc"]
   },
   "plugins": [
     "plugins/markdown"
   ],
   "templates": {
     "referenceTitle": "akomando",
     "disableSort": false,
     "collapse": false
   },
   "opts": {
      "encoding": "utf8",
      "destination": "./docs/",
      "recurse": true,
      "readme": "README.md"
   }
 }
